{
  "status" : {
    "1" : "Last seen recently",
    "2" : "Last seen about a week ago",
    "3" : "Last seen a long time ago"
  },
  "group_type" : {
    "1" : "private",
    "2" : "group",
    "3" : "channel"
  },
  "user_type" : {
    "1" : "person",
    "2" : "group",
    "3" : "channel"
  },
  "message_type" : {
    "1" : "text",
    "2" : "audio",
    "3" : "photo",
    "4" : "video"
  }
}